<?xml version="1.0" encoding="utf-8"?>
<!-- Generator: Adobe Illustrator 16.2.0, SVG Export Plug-In . SVG Version: 6.00 Build 0)  -->
<!DOCTYPE svg PUBLIC "-//W3C//DTD SVG 1.1//EN" "http://www.w3.org/Graphics/SVG/1.1/DTD/svg11.dtd">
<svg version="1.1" id="Слой_1" xmlns="http://www.w3.org/2000/svg" xmlns:xlink="http://www.w3.org/1999/xlink" x="0px" y="0px"
	 width="24.425px" height="28.625px" viewBox="0 0 24.425 28.625" enable-background="new 0 0 24.425 28.625" xml:space="preserve">
<path fill="none" stroke="#4592CF" stroke-width="0.75" stroke-miterlimit="10" d="M14.059,21.906"/>
<path fill="none" stroke="#4592CF" stroke-width="0.75" stroke-miterlimit="10" d="M58.758,32.917"/>
<g>
	<path fill="none" stroke="#4592CF" stroke-width="0.75" stroke-miterlimit="10" d="M15.233,10.813"/>
	<path fill="#FFFFFF" stroke="#2C2C2C" stroke-width="0.75" stroke-miterlimit="10" d="M23.181,23.459
		c0.259-0.771-0.236-1.601-0.861-1.892l-4.113-1.908c-0.197-0.09-0.433-0.139-0.682-0.139c-0.508,0-1.019,0.197-1.331,0.514
		l-1.295,1.309c-0.193,0.196-0.535,0.326-0.852,0.326c-0.136,0-0.255-0.024-0.345-0.072c-0.874-0.458-2.248-1.371-3.833-3.124
		c-1.406-1.558-2.074-2.624-2.387-3.244c-0.175-0.348,0.008-0.95,0.282-1.234l1.153-1.202c0.479-0.5,0.695-1.419,0.492-2.095
		L8.111,6.401c-0.197-0.653-0.861-1.33-1.639-1.33C5.398,5.109,3.891,5.51,2.805,7.209c-1.676,2.625-1.576,7.68,1.511,11.269
		c2.872,3.338,7.136,7.023,7.173,7.055c0.092,0.087,2.291,2.128,5.509,2.128c0.31,0,0.625-0.021,0.942-0.059
		C21.443,27.159,22.727,24.816,23.181,23.459z"/>
	<path fill="none" stroke="#2C2C2C" stroke-width="0.75" stroke-miterlimit="10" d="M12.075,2.08
		c3.312,1.858,4.49,6.048,2.634,9.358"/>
	<path fill="none" stroke="#2C2C2C" stroke-width="0.75" stroke-miterlimit="10" d="M9.833,3.629c2.558,1.436,3.47,4.67,2.035,7.23"
		/>
</g>
</svg>
